sg_analyse/WA000007.CSV

Record Length,9216,,Source,CH1
Sample Interval,0.0013020833750,,Second,Volt
Vertical Units,CH1:V,,-9.21600000000,-0.04000
Vertical Scale,CH1:1.00,,-9.21400000000,-0.08000
Vertical Offset,CH1:0.00,,-9.21200000000,-0.04000
Horizontal Units,s,,-9.21000000000,-0.08000
Horizontal Scale,1.0000000000,,-9.20800000000,-0.04000
Model Number,WaveAce232,,-9.20599900000,-0.04000
Serial Number,LCRY2106C00077,,-9.20400000000,-0.12000
Software Version,2.06.02.11,,-9.20200000000,-0.12000
,,,-9.20000000000,-0.12000
,,,-9.19800000000,-0.12000
,,,-9.19600000000,-0.08000
,,,-9.19400000000,-0.12000
,,,-9.19199900000,-0.08000
,,,-9.19000000000,-0.12000
,,,-9.18800000000,-0.16000
,,,-9.18600000000,-0.12000
,,,-9.18400000000,-0.12000
,,,-9.18200000000,-0.12000
,,,-9.18000000000,-0.08000
,,,-9.17799900000,-0.08000
,,,-9.17600000000,-0.04000
,,,-9.17400000000,-0.04000
,,,-9.17200000000,-0.04000
,,,-9.17000000000,0.00
,,,-9.16800000000,-0.04000
,,,-9.16599900000,-0.04000
,,,-9.16400000000,0.00
,,,-9.16200000000,0.00
,,,-9.16000000000,0.00
,,,-9.15800000000,0.04000
,,,-9.15600000000,0.04000
,,,-9.15400000000,0.04000
,,,-9.15199900000,0.00
,,,-9.15000000000,0.08000
,,,-9.14800000000,0.08000
,,,-9.14600000000,0.04000
,,,-9.14400000000,0.08000
,,,-9.14200000000,0.04000
,,,-9.14000000000,0.04000
,,,-9.13800000000,0.04000
,,,-9.13600000000,0.04000
,,,-9.13400000000,0.08000
,,,-9.13200000000,0.04000
,,,-9.13000000000,-0.04000
,,,-9.12800000000,0.04000
,,,-9.12599900000,-0.04000
,,,-9.12400000000,-0.04000
,,,-9.12200000000,-0.04000
,,,-9.12000000000,-0.04000
,,,-9.11800000000,-0.04000
,,,-9.11600000000,-0.04000
,,,-9.11400000000,-0.12000
,,,-9.11200000000,-0.08000
,,,-9.11000000000,-0.08000
,,,-9.10800000000,-0.04000
,,,-9.10600000000,-0.08000
,,,-9.10400000000,-0.12000
,,,-9.10200000000,-0.08000
,,,-9.10000000000,-0.08000
,,,-9.09800000000,-0.04000
,,,-9.09600000000,-0.04000
,,,-9.09400000000,-0.08000
,,,-9.09200000000,-0.12000
,,,-9.09000000000,-0.12000
,,,-9.08800000000,-0.08000
,,,-9.08599900000,-0.08000
,,,-9.08400000000,-0.12000
,,,-9.08200000000,-0.04000
,,,-9.08000000000,-0.04000
,,,-9.07800000000,-0.04000
,,,-9.07600000000,-0.04000
,,,-9.07400000000,-0.04000
,,,-9.07200000000,-0.04000
,,,-9.07000000000,-0.04000
,,,-9.06800000000,-0.04000
,,,-9.06600000000,-0.04000
,,,-9.06400000000,0.00
,,,-9.06200000000,-0.04000
,,,-9.06000000000,0.04000
,,,-9.05800000000,0.00
,,,-9.05600000000,0.04000
,,,-9.05400000000,0.04000
,,,-9.05200000000,0.04000
,,,-9.05000000000,0.04000
,,,-9.04800000000,0.12000
,,,-9.04600000000,0.08000
,,,-9.04400000000,0.04000
,,,-9.04200000000,0.04000
,,,-9.04000000000,0.08000
,,,-9.03800000000,0.08000
,,,-9.03600000000,0.04000
,,,-9.03400000000,0.04000
,,,-9.03200000000,0.04000
,,,-9.03000000000,0.00
,,,-9.02800000000,0.04000
,,,-9.02600000000,0.00
,,,-9.02400000000,0.00
,,,-9.02200000000,0.00
,,,-9.02000000000,0.00
,,,-9.01800000000,0.00
,,,-9.01600000000,-0.04000
,,,-9.01400000000,-0.08000
,,,-9.01200000000,-0.08000
,,,-9.01000000000,-0.08000
,,,-9.00800000000,-0.12000
,,,-9.00600000000,-0.12000
,,,-9.00400000000,-0.08000
,,,-9.00200000000,-0.12000
,,,-9.00000000000,-0.08000
,,,-8.99800000000,-0.08000
,,,-8.99600000000,-0.08000
,,,-8.99400000000,-0.08000
,,,-8.99200000000,-0.12000
,,,-8.99000000000,-0.12000
,,,-8.98800000000,-0.04000
,,,-8.98600000000,-0.08000
,,,-8.98400000000,-0.04000
,,,-8.98200000000,-0.04000
,,,-8.98000000000,-0.04000
,,,-8.97800000000,-0.04000
,,,-8.97600000000,-0.04000
,,,-8.97400000000,0.00
,,,-8.97200000000,0.04000
,,,-8.97000000000,0.00
,,,-8.96800000000,0.04000
,,,-8.96600000000,0.00
,,,-8.96400000000,0.04000
,,,-8.96200000000,0.04000
,,,-8.96000000000,0.00
,,,-8.95800000000,0.08000
,,,-8.95600000000,0.04000
,,,-8.95400000000,0.08000
,,,-8.95200000000,0.08000
,,,-8.95000000000,0.04000
,,,-8.94800000000,0.08000
,,,-8.94600000000,0.00
,,,-8.94400000000,0.00
,,,-8.94200000000,0.04000
,,,-8.94000100000,0.00
,,,-8.93800000000,0.04000
,,,-8.93600000000,0.00
,,,-8.93400000000,0.04000
,,,-8.93200000000,-0.04000
,,,-8.93000000000,-0.04000
,,,-8.92800000000,0.00
,,,-8.92600000000,-0.04000
,,,-8.92400000000,-0.04000
,,,-8.92200000000,-0.04000
,,,-8.92000000000,-0.08000
,,,-8.91800000000,-0.12000
,,,-8.91600000000,-0.08000
,,,-8.91400100000,-0.08000
,,,-8.91200000000,-0.08000
,,,-8.91000000000,-0.08000
,,,-8.90800000000,-0.08000
,,,-8.90600000000,-0.08000
,,,-8.90400000000,-0.08000
,,,-8.90200000000,-0.08000
,,,-8.90000100000,-0.04000
,,,-8.89800000000,-0.12000
,,,-8.89600000000,-0.08000
,,,-8.89400000000,-0.12000
,,,-8.89200000000,-0.08000
,,,-8.89000000000,-0.08000
,,,-8.88800000000,-0.08000
,,,-8.88600000000,-0.04000
,,,-8.88400000000,-0.04000
,,,-8.88200000000,-0.04000
,,,-8.88000000000,-0.04000
,,,-8.87800000000,-0.04000
,,,-8.87600000000,-0.04000
,,,-8.87400100000,0.00
,,,-8.87200000000,0.00
,,,-8.87000000000,-0.04000
,,,-8.86800000000,0.04000
,,,-8.86600000000,0.00
,,,-8.86400000000,0.04000
,,,-8.86200000000,0.08000
,,,-8.86000100000,0.04000
,,,-8.85800000000,0.04000
,,,-8.85600000000,0.04000
,,,-8.85400000000,0.08000
,,,-8.85200000000,0.04000
,,,-8.85000000000,0.00
,,,-8.84800100000,0.12000
,,,-8.84600000000,0.04000
,,,-8.84400000000,0.04000
,,,-8.84200000000,0.04000
,,,-8.84000000000,0.00
,,,-8.83800000000,0.00
,,,-8.83600000000,0.00
,,,-8.83400100000,0.00
,,,-8.83200000000,-0.04000
,,,-8.83000000000,-0.04000
,,,-8.82800000000,-0.04000
,,,-8.82600000000,-0.04000
,,,-8.82400000000,-0.04000
,,,-8.82200100000,-0.04000
,,,-8.82000100000,-0.04000
,,,-8.81800000000,-0.04000
,,,-8.81600000000,-0.04000
,,,-8.81400000000,-0.12000
,,,-8.81200000000,-0.12000
,,,-8.81000000000,-0.12000
,,,-8.80800100000,-0.08000
,,,-8.80600000000,-0.12000
,,,-8.80400000000,-0.12000
,,,-8.80200000000,-0.08000
,,,-8.80000000000,-0.12000
,,,-8.79800000000,-0.08000
,,,-8.79600000000,-0.04000
,,,-8.79400100000,-0.04000
,,,-8.79200000000,-0.04000
,,,-8.79000000000,-0.04000
,,,-8.78800000000,0.00
,,,-8.78600000000,-0.04000
,,,-8.78400000000,-0.04000
,,,-8.78200100000,-0.04000
,,,-8.78000100000,0.00
,,,-8.77800000000,0.04000
,,,-8.77600000000,0.00
,,,-8.77400000000,0.04000
,,,-8.77200000000,0.00
,,,-8.77000000000,0.04000
,,,-8.76800100000,0.08000
,,,-8.76600000000,0.04000
,,,-8.76400000000,0.04000
,,,-8.76200000000,0.08000
,,,-8.76000000000,0.12000
,,,-8.75800000000,0.04000
,,,-8.75600100000,0.12000
,,,-8.75400100000,0.04000
,,,-8.75200000000,0.04000
,,,-8.75000000000,0.08000
,,,-8.74800000000,0.04000
,,,-8.74600000000,0.00
,,,-8.74400000000,-0.04000
,,,-8.74200100000,0.00
,,,-8.74000100000,0.00
,,,-8.73800000000,-0.04000
,,,-8.73600000000,-0.04000
,,,-8.73400000000,-0.04000
,,,-8.73200000000,-0.04000
,,,-8.73000000000,-0.08000
,,,-8.72800100000,-0.04000
,,,-8.72600000000,-0.08000
,,,-8.72400000000,-0.12000
,,,-8.72200000000,-0.04000
,,,-8.72000000000,-0.04000
,,,-8.71799900000,-0.08000
,,,-8.71600000000,-0.08000
,,,-8.71400000000,-0.08000
,,,-8.71199900000,-0.12000
,,,-8.70999900000,-0.12000
,,,-8.70799900000,-0.04000
,,,-8.70599900000,-0.04000
,,,-8.70400000000,-0.08000
,,,-8.70200000000,-0.08000
,,,-8.70000000000,-0.08000
,,,-8.69799900000,-0.08000
,,,-8.69599900000,-0.08000
,,,-8.69399900000,-0.04000
,,,-8.69199900000,-0.08000
,,,-8.69000000000,-0.04000
,,,-8.68800000000,-0.04000
,,,-8.68599900000,0.00
,,,-8.68399900000,-0.04000
,,,-8.68199900000,-0.04000
,,,-8.67999900000,0.04000
,,,-8.67799900000,0.00
,,,-8.67600000000,0.00
,,,-8.67400000000,0.04000
,,,-8.67199900000,0.04000
,,,-8.66999900000,0.08000
,,,-8.66799900000,0.00
,,,-8.66599900000,0.08000
,,,-8.66400000000,0.08000
,,,-8.66200000000,0.04000
,,,-8.66000000000,0.08000
,,,-8.65799900000,0.00
,,,-8.65599900000,0.00
,,,-8.65399900000,0.00
,,,-8.65199900000,0.04000
,,,-8.65000000000,0.08000
,,,-8.64800000000,0.04000
,,,-8.64599900000,0.04000
,,,-8.64399900000,0.00
,,,-8.64199900000,-0.04000
,,,-8.63999900000,0.00
,,,-8.63800000000,-0.04000
,,,-8.63600000000,0.00
,,,-8.63400000000,-0.04000
,,,-8.63199900000,-0.04000
,,,-8.62999900000,-0.08000
,,,-8.62799900000,-0.04000
,,,-8.62599900000,-0.08000
,,,-8.62400000000,-0.08000
,,,-8.62200000000,-0.08000
,,,-8.62000000000,-0.08000
,,,-8.61799900000,-0.08000
,,,-8.61599900000,-0.04000
,,,-8.61399900000,-0.04000
,,,-8.61200000000,-0.08000
,,,-8.61000000000,-0.12000
,,,-8.60800000000,-0.12000
,,,-8.60599900000,-0.08000
,,,-8.60399900000,-0.12000
,,,-8.60199900000,-0.04000
,,,-8.59999900000,-0.04000
,,,-8.59800000000,-0.04000
,,,-8.59600000000,-0.04000
,,,-8.59400000000,-0.04000
,,,-8.59199900000,-0.04000
,,,-8.58999900000,0.04000
,,,-8.58799900000,0.00
,,,-8.58599900000,0.04000
,,,-8.58400000000,0.00
,,,-8.58200000000,0.00
,,,-8.58000000000,0.04000
,,,-8.57799900000,0.04000
,,,-8.57599900000,0.04000
,,,-8.57399900000,0.04000
,,,-8.57200000000,0.04000
,,,-8.57000000000,0.04000
,,,-8.56800000000,0.08000
,,,-8.56599900000,0.00
,,,-8.56399900000,0.04000
,,,-8.56199900000,0.04000
,,,-8.55999900000,0.08000
,,,-8.55800000000,0.04000
,,,-8.55600000000,0.00
,,,-8.55400000000,0.00
,,,-8.55199900000,0.00
,,,-8.54999900000,0.00
,,,-8.54799900000,0.00
,,,-8.54600000000,-0.04000
,,,-8.54400000000,-0.04000
,,,-8.54200000000,-0.04000
,,,-8.54000000000,-0.04000
,,,-8.53799900000,-0.04000
,,,-8.53599900000,-0.04000
,,,-8.53399900000,-0.04000
,,,-8.53200000000,-0.08000
,,,-8.53000000000,-0.08000
,,,-8.52800000000,-0.08000
,,,-8.52599900000,-0.12000
,,,-8.52399900000,-0.08000
,,,-8.52199900000,-0.12000
,,,-8.52000000000,-0.08000
,,,-8.51800000000,-0.12000
,,,-8.51600000000,-0.08000
,,,-8.51400000000,-0.12000
,,,-8.51199900000,-0.12000
,,,-8.50999900000,-0.12000
,,,-8.50799900000,-0.08000
,,,-8.50600000000,-0.04000
,,,-8.50400000000,-0.08000
,,,-8.50200000000,-0.08000
,,,-8.50000000000,-0.08000
,,,-8.49799900000,-0.04000
,,,-8.49599900000,-0.04000
,,,-8.49399900000,0.00
,,,-8.49200000000,-0.04000
,,,-8.49000000000,0.00
,,,-8.48800000000,0.04000
,,,-8.48599900000,0.00
,,,-8.48399900000,0.00
,,,-8.48199900000,0.00
,,,-8.48000000000,0.00
,,,-8.47800000000,0.00
,,,-8.47600000000,0.08000
,,,-8.47400000000,0.04000
,,,-8.47199900000,0.08000
,,,-8.46999900000,0.04000
,,,-8.46799900000,0.08000
,,,-8.46600000000,0.00
,,,-8.46400000000,0.04000
,,,-8.46200000000,0.04000
,,,-8.46000000000,0.08000
,,,-8.45799900000,0.00
,,,-8.45599900000,0.00
,,,-8.45400000000,0.00
,,,-8.45200000000,0.00
,,,-8.45000000000,0.00
,,,-8.44800000000,-0.04000
,,,-8.44599900000,-0.04000
,,,-8.44399900000,-0.04000
,,,-8.44199900000,-0.04000
,,,-8.44000000000,-0.04000
,,,-8.43800000000,-0.08000
,,,-8.43600000000,-0.04000
,,,-8.43400000000,-0.08000
,,,-8.43199900000,-0.04000
,,,-8.42999900000,-0.08000
,,,-8.42799900000,-0.04000
,,,-8.42600000000,-0.08000
,,,-8.42400000000,-0.08000
,,,-8.42200000000,-0.08000
,,,-8.42000000000,-0.08000
,,,-8.41799900000,-0.08000
,,,-8.41599900000,-0.08000
,,,-8.41400000000,-0.08000
,,,-8.41200000000,-0.08000
,,,-8.41000000000,-0.04000
,,,-8.40800000000,-0.04000
,,,-8.40599900000,-0.04000
,,,-8.40399900000,-0.04000
,,,-8.40199900000,-0.04000
,,,-8.40000000000,-0.04000
,,,-8.39800000000,-0.04000
,,,-8.39600000000,0.00
,,,-8.39400000000,0.00
,,,-8.39199900000,0.00
,,,-8.38999900000,0.04000
,,,-8.38799950000,0.04000
,,,-8.38599950000,0.04000
,,,-8.38400000000,0.04000
,,,-8.38200000000,0.04000
,,,-8.38000000000,0.08000
,,,-8.37799950000,0.08000
,,,-8.37599950000,0.04000
,,,-8.37399950000,0.00
,,,-8.37199950000,0.00
,,,-8.37000000000,0.08000
,,,-8.36800000000,0.04000
,,,-8.36599900000,0.04000
,,,-8.36399950000,0.00
,,,-8.36199950000,0.00
,,,-8.35999950000,0.00
,,,-8.35800000000,0.00
,,,-8.35600000000,0.00
,,,-8.35400000000,-0.04000
,,,-8.35199950000,-0.04000
,,,-8.34999950000,-0.04000
,,,-8.34799950000,-0.04000
,,,-8.34599950000,-0.04000
,,,-8.34400000000,-0.08000
,,,-8.34200000000,-0.08000
,,,-8.34000000000,-0.08000
,,,-8.33799950000,-0.08000
,,,-8.33599950000,-0.08000
,,,-8.33399950000,-0.12000
,,,-8.33200000000,-0.12000
,,,-8.33000000000,-0.08000
,,,-8.32800000000,-0.12000
,,,-8.32599950000,-0.08000
,,,-8.32399950000,-0.12000
,,,-8.32199950000,-0.12000
,,,-8.31999950000,-0.12000
,,,-8.31800000000,-0.12000
,,,-8.31600000000,-0.08000
,,,-8.31400000000,-0.12000
,,,-8.31199950000,-0.04000
,,,-8.30999950000,-0.04000
,,,-8.30799950000,-0.04000
,,,-8.30600000000,-0.04000
,,,-8.30400000000,-0.08000
,,,-8.30200000000,-0.04000
,,,-8.30000000000,-0.04000
,,,-8.29799950000,-0.04000
,,,-8.29599950000,0.00
,,,-8.29399950000,0.00
,,,-8.29200000000,-0.04000
,,,-8.29000000000,0.00
,,,-8.28800000000,0.04000
,,,-8.28599950000,0.04000
,,,-8.28399950000,0.04000
,,,-8.28199950000,0.00
,,,-8.27999950000,0.04000
,,,-8.27800000000,0.00
,,,-8.27600000000,0.08000
,,,-8.27400000000,0.08000
,,,-8.27199950000,0.04000
,,,-8.26999950000,0.04000
,,,-8.26799950000,0.04000
,,,-8.26600000000,0.04000
,,,-8.26400000000,0.00
,,,-8.26200000000,0.00
,,,-8.26000000000,0.00
,,,-8.25799950000,-0.04000
,,,-8.25599950000,-0.04000
,,,-8.25399950000,0.00
,,,-8.25200000000,-0.04000
,,,-8.25000000000,-0.04000
,,,-8.24800000000,-0.04000
,,,-8.24599950000,-0.08000
,,,-8.24399950000,-0.04000
,,,-8.24199950000,-0.04000
,,,-8.24000000000,-0.08000
,,,-8.23800000000,-0.08000
,,,-8.23600000000,-0.12000
,,,-8.23400000000,-0.08000
,,,-8.23199950000,-0.12000
,,,-8.22999950000,-0.12000
,,,-8.22799950000,-0.12000
,,,-8.22600000000,-0.08000
,,,-8.22400000000,-0.08000
,,,-8.22200000000,-0.08000
,,,-8.22000050000,-0.08000
,,,-8.21799950000,-0.08000
,,,-8.21599950000,-0.04000
,,,-8.21399950000,-0.04000
,,,-8.21200000000,-0.04000
,,,-8.21000000000,-0.04000
,,,-8.20800000000,-0.04000
,,,-8.20599950000,-0.04000
,,,-8.20399950000,0.04000
,,,-8.20199950000,0.00
,,,-8.20000000000,0.00
,,,-8.19800000000,0.00
,,,-8.19600000000,0.04000
,,,-8.19400000000,0.00
,,,-8.19199950000,0.00
,,,-8.18999950000,0.00
,,,-8.18799950000,0.00
,,,-8.18600000000,0.08000
,,,-8.18400000000,0.04000
,,,-8.18200000000,0.00
,,,-8.18000050000,0.08000
,,,-8.17799950000,0.00
,,,-8.17599950000,0.00
,,,-8.17400000000,0.00
,,,-8.17200000000,0.04000
,,,-8.17000000000,0.00
,,,-8.16800000000,0.04000
,,,-8.16599950000,-0.04000
,,,-8.16399950000,-0.04000
,,,-8.16199950000,-0.04000
,,,-8.16000000000,-0.04000
,,,-8.15800000000,-0.04000
,,,-8.15600000000,-0.04000
,,,-8.15400050000,-0.08000
,,,-8.15199950000,-0.04000
,,,-8.14999950000,-0.12000
,,,-8.14800000000,-0.04000
,,,-8.14600000000,-0.08000
,,,-8.14400000000,-0.08000
,,,-8.14200000000,-0.04000
,,,-8.14000050000,-0.04000
,,,-8.13799950000,-0.12000
,,,-8.13599950000,-0.12000
,,,-8.13400000000,-0.12000
,,,-8.13200000000,-0.12000
,,,-8.13000000000,-0.08000
,,,-8.12800050000,-0.08000
,,,-8.12599950000,-0.08000
,,,-8.12399950000,-0.12000
,,,-8.12199950000,-0.08000
,,,-8.12000000000,-0.04000
,,,-8.11800000000,-0.04000
,,,-8.11600000000,-0.08000
,,,-8.11400050000,-0.04000
,,,-8.11199950000,-0.04000
,,,-8.10999950000,-0.04000
,,,-8.10800000000,-0.04000
,,,-8.10600000000,-0.04000
,,,-8.10400000000,0.04000
,,,-8.10200000000,0.00
,,,-8.10000050000,0.04000
,,,-8.09799950000,-0.04000
,,,-8.09599950000,0.00
,,,-8.09400000000,0.00
,,,-8.09200000000,0.08000
,,,-8.09000000000,0.08000
,,,-8.08800050000,0.08000
,,,-8.08599950000,0.04000
,,,-8.08399950000,0.00
,,,-8.08200000000,0.00
,,,-8.08000000000,0.04000
,,,-8.07800000000,0.00
,,,-8.07600000000,0.04000
,,,-8.07400050000,0.04000
,,,-8.07199950000,0.00
,,,-8.06999950000,-0.04000
,,,-8.06800000000,0.00
,,,-8.06600000000,0.04000
,,,-8.06400000000,-0.04000
,,,-8.06200050000,-0.04000
,,,-8.06000050000,-0.04000
,,,-8.05799950000,-0.04000
,,,-8.05600000000,-0.08000
,,,-8.05400000000,-0.08000
,,,-8.05200000000,-0.04000
,,,-8.05000000000,-0.08000
,,,-8.04800050000,-0.04000
,,,-8.04599950000,-0.04000
,,,-8.04399950000,-0.12000
,,,-8.04200000000,-0.08000
,,,-8.04000000000,-0.08000
,,,-8.03800000000,-0.04000
,,,-8.03600050000,-0.12000
,,,-8.03400050000,-0.08000
,,,-8.03199950000,-0.08000
,,,-8.02999950000,-0.12000
,,,-8.02800000000,-0.04000
,,,-8.02600000000,-0.12000
,,,-8.02400000000,-0.12000
,,,-8.02200050000,-0.12000
,,,-8.02000050000,-0.12000
,,,-8.01799950000,-0.12000
,,,-8.01600000000,-0.04000
,,,-8.01400000000,0.00
,,,-8.01200000000,0.00
,,,-8.01000000000,0.00
,,,-8.00800050000,0.00
,,,-8.00599950000,0.04000
,,,-8.00399950000,0.08000
,,,-8.00200000000,-0.04000
,,,-8.00000000000,0.08000
,,,-7.99800000000,0.00
,,,-7.99600000000,0.04000
,,,-7.99400000000,0.04000
,,,-7.99200000000,0.00
,,,-7.99000000000,0.04000
,,,-7.98800000000,0.08000
,,,-7.98600000000,0.00
,,,-7.98400000000,0.04000
,,,-7.98200000000,0.04000
,,,-7.98000000000,0.04000
,,,-7.97800000000,0.00
,,,-7.97600000000,0.00
,,,-7.97400000000,0.04000
,,,-7.97200000000,-0.04000
,,,-7.97000050000,-0.04000
,,,-7.96800000000,-0.04000
,,,-7.96600000000,-0.04000
,,,-7.96400000000,-0.04000
,,,-7.96200000000,-0.04000
,,,-7.96000000000,-0.04000
,,,-7.95799950000,-0.08000
,,,-7.95599950000,-0.04000
,,,-7.95399950000,-0.04000
,,,-7.95199950000,-0.12000
,,,-7.95000000000,-0.12000
,,,-7.94799950000,-0.12000
,,,-7.94599950000,-0.12000
,,,-7.94400000000,-0.08000
,,,-7.94199950000,-0.12000
,,,-7.93999950000,-0.04000
,,,-7.93799950000,-0.12000
,,,-7.93599950000,-0.04000
,,,-7.93399950000,-0.12000
,,,-7.93199950000,-0.08000
,,,-7.93000000000,-0.12000
,,,-7.92799950000,-0.04000
,,,-7.92599950000,-0.04000
,,,-7.92400000000,-0.04000
,,,-7.92199950000,-0.04000
,,,-7.91999950000,-0.04000
,,,-7.91799950000,-0.04000
,,,-7.91599950000,0.00
,,,-7.91399950000,-0.04000
,,,-7.91199950000,0.00
,,,-7.91000000000,-0.04000
,,,-7.90799950000,0.00
,,,-7.90599950000,0.04000
,,,-7.90400000000,0.00
,,,-7.90199950000,0.00
,,,-7.89999950000,0.08000
,,,-7.89800000000,0.04000
,,,-7.89599950000,0.04000
,,,-7.89399950000,0.04000
,,,-7.89199950000,0.04000
,,,-7.89000000000,0.00
,,,-7.88799950000,0.04000
,,,-7.88599950000,0.04000
,,,-7.88400000000,0.08000
,,,-7.88199950000,0.04000
,,,-7.87999950000,0.00
,,,-7.87800000000,0.00
,,,-7.87599950000,0.00
,,,-7.87399950000,0.00
,,,-7.87199950000,0.00
,,,-7.87000000000,0.00
,,,-7.86799950000,-0.04000
,,,-7.86599950000,-0.04000
,,,-7.86400000000,-0.04000
,,,-7.86199950000,-0.04000
,,,-7.85999950000,-0.04000
,,,-7.85800000000,-0.04000
,,,-7.85599950000,-0.04000
,,,-7.85399950000,-0.04000
,,,-7.85200000000,-0.12000
,,,-7.85000000000,-0.08000
,,,-7.84799950000,-0.12000
,,,-7.84599950000,-0.08000
,,,-7.84400000000,-0.08000
,,,-7.84199950000,-0.12000
,,,-7.83999950000,-0.12000
,,,-7.83800000000,-0.08000
,,,-7.83599950000,-0.08000
,,,-7.83399950000,-0.12000
,,,-7.83200000000,-0.12000
,,,-7.83000000000,-0.12000
,,,-7.82799950000,0.00
,,,-7.82599950000,-0.04000
,,,-7.82400000000,-0.04000
,,,-7.82199950000,-0.04000
,,,-7.81999950000,-0.04000
,,,-7.81800000000,-0.04000
,,,-7.81599950000,0.04000
,,,-7.81399950000,0.00
,,,-7.81200000000,0.08000
,,,-7.81000000000,0.04000
,,,-7.80799950000,0.04000
,,,-7.80600000000,0.04000
,,,-7.80400000000,0.04000
,,,-7.80199950000,0.04000
,,,-7.79999950000,0.04000
,,,-7.79800000000,0.04000
,,,-7.79599950000,0.08000
,,,-7.79399950000,0.08000
,,,-7.79200000000,0.04000
,,,-7.79000000000,0.00
,,,-7.78799950000,0.00
,,,-7.78600000000,0.00
,,,-7.78400000000,-0.04000
,,,-7.78199950000,0.00
,,,-7.77999950000,-0.04000
,,,-7.77800000000,-0.04000
,,,-7.77599950000,-0.04000
,,,-7.77399950000,-0.04000
,,,-7.77200000000,-0.04000
,,,-7.77000000000,-0.08000
,,,-7.76799950000,-0.04000
,,,-7.76600000000,-0.04000
,,,-7.76400000000,-0.12000
,,,-7.76199950000,-0.08000
,,,-7.76000000000,-0.08000
,,,-7.75800000000,-0.16000
,,,-7.75599950000,-0.12000
,,,-7.75399950000,-0.08000
,,,-7.75200000000,-0.12000
,,,-7.75000000000,-0.12000
,,,-7.74799950000,-0.08000
,,,-7.74600000000,-0.12000
,,,-7.74400000000,-0.08000
,,,-7.74199950000,-0.08000
,,,-7.74000000000,-0.08000
,,,-7.73800000000,-0.12000
,,,-7.73599950000,-0.04000
,,,-7.73399950000,-0.08000
,,,-7.73200000000,-0.04000
,,,-7.73000000000,-0.04000
,,,-7.72799950000,-0.04000
,,,-7.72600000000,-0.04000
,,,-7.72400000000,-0.04000
,,,-7.72199950000,-0.04000
,,,-7.72000000000,-0.04000
,,,-7.71800000000,0.00
,,,-7.71599950000,0.04000
,,,-7.71399950000,0.04000
,,,-7.71200000000,0.08000
,,,-7.71000000000,0.00
,,,-7.70799950000,0.08000
,,,-7.70600000000,0.08000
,,,-7.70400000000,0.04000
,,,-7.70199950000,0.08000
